[

  {
    "id": "1234567890",
    "account": "00000111112222233333",
    "amount": 1000,
    "currency": "CAD",
    "date": "20170330",
    "payee_ref": "0987654321",
    "status_code": "Pending"

},
  {
    "id": "1234567890",
    "account": "00000111112222233333",
    "amount": 1000,
    "currency": "CAD",
    "date": "20170330",
    "payee_ref": "0987654321",
    "status_code": "Pending"

  }
]
